{
  "Title": "RHSA-2023:0838: samba security update (Important)",
  "Description": "Samba is an open-source implementation of the Server Message Block (SMB) protocol and the related Common Internet File System (CIFS) protocol, which allow PC-compatible machines to share files, printers, and various information.\nSecurity Fix(es):\n* samba: RC4/HMAC-MD5 NetLogon Secure Channel is weak and should be avoided (CVE-2022-38023)\nFor more details about the security issue(s), including the impact, a CVSS score, acknowledgments, and other related information, refer to the CVE page(s) listed in the References section.",
  "Platform": [
    "Red Hat Enterprise Linux 8"
  ],
  "References": [
    {
      "Source": "RHSA",
      "URI": "https://access.redhat.com/errata/RHSA-2023:0838",
      "ID": "RHSA-2023:0838"
    },
    {
      "Source": "CVE",
      "URI": "https://access.redhat.com/security/cve/CVE-2022-38023",
      "ID": "CVE-2022-38023"
    }
  ],
  "Criteria": {
    "Operator": "OR",
    "Criterias": [
      {
        "Operator": "AND",
        "Criterias": [
          {
            "Operator": "OR",
            "Criterias": [

            ],
            "Criterions": [
              {
                "Comment": "Oracle Linux 8 is installed"
              },
              {
                "Comment": "Red Hat CoreOS 4 is installed"
              }
            ]
          },
          {
            "Operator": "OR",
            "Criterias": [
              {
                "Operator": "AND",
                "Criterias": [

                ],
                "Criterions": [
                  {
                    "Comment": "ctdb is earlier than 0:4.16.4-4.el8_7"
                  },
                  {
                    "Comment": "ctdb is signed with Red Hat redhatrelease2 key"
                  }
                ]
              },
              {
                "Operator": "AND",
                "Criterias": [

                ],
                "Criterions": [
                  {
                    "Comment": "libsmbclient is earlier than 0:4.16.4-4.el8_7"
                  },
                  {
                    "Comment": "libsmbclient is signed with Red Hat redhatrelease2 key"
                  }
                ]
              },
              {
                "Operator": "AND",
                "Criterias": [

                ],
                "Criterions": [
                  {
                    "Comment": "libsmbclient-devel is earlier than 0:4.16.4-4.el8_7"
                  },
                  {
                    "Comment": "libsmbclient-devel is signed with Red Hat redhatrelease2 key"
                  }
                ]
              },
              {
                "Operator": "AND",
                "Criterias": [

                ],
                "Criterions": [
                  {
                    "Comment": "libwbclient is earlier than 0:4.16.4-4.el8_7"
                  },
                  {
                    "Comment": "libwbclient is signed with Red Hat redhatrelease2 key"
                  }
                ]
              },
              {
                "Operator": "AND",
                "Criterias": [

                ],
                "Criterions": [
                  {
                    "Comment": "libwbclient-devel is earlier than 0:4.16.4-4.el8_7"
                  },
                  {
                    "Comment": "libwbclient-devel is signed with Red Hat redhatrelease2 key"
                  }
                ]
              },
              {
                "Operator": "AND",
                "Criterias": [

                ],
                "Criterions": [
                  {
                    "Comment": "python3-samba is earlier than 0:4.16.4-4.el8_7"
                  },
                  {
                    "Comment": "python3-samba is signed with Red Hat redhatrelease2 key"
                  }
                ]
              },
              {
                "Operator": "AND",
                "Criterias": [

                ],
                "Criterions": [
                  {
                    "Comment": "python3-samba-test is earlier than 0:4.16.4-4.el8_7"
                  },
                  {
                    "Comment": "python3-samba-test is signed with Red Hat redhatrelease2 key"
                  }
                ]
              },
              {
                "Operator": "AND",
                "Criterias": [

                ],
                "Criterions": [
                  {
                    "Comment": "samba is earlier than 0:4.16.4-4.el8_7"
                  },
                  {
                    "Comment": "samba is signed with Red Hat redhatrelease2 key"
                  }
                ]
              },
              {
                "Operator": "AND",
                "Criterias": [

                ],
                "Criterions": [
                  {
                    "Comment": "samba-client is earlier than 0:4.16.4-4.el8_7"
                  },
                  {
                    "Comment": "samba-client is signed with Red Hat redhatrelease2 key"
                  }
                ]
              },
              {
                "Operator": "AND",
                "Criterias": [

                ],
                "Criterions": [
                  {
                    "Comment": "samba-client-libs is earlier than 0:4.16.4-4.el8_7"
                  },
                  {
                    "Comment": "samba-client-libs is signed with Red Hat redhatrelease2 key"
                  }
                ]
              },
              {
                "Operator": "AND",
                "Criterias": [

                ],
                "Criterions": [
                  {
                    "Comment": "samba-common is earlier than 0:4.16.4-4.el8_7"
                  },
                  {
                    "Comment": "samba-common is signed with Red Hat redhatrelease2 key"
                  }
                ]
              },
              {
                "Operator": "AND",
                "Criterias": [

                ],
                "Criterions": [
                  {
                    "Comment": "samba-common-libs is earlier than 0:4.16.4-4.el8_7"
                  },
                  {
                    "Comment": "samba-common-libs is signed with Red Hat redhatrelease2 key"
                  }
                ]
              },
              {
                "Operator": "AND",
                "Criterias": [

                ],
                "Criterions": [
                  {
                    "Comment": "samba-common-tools is earlier than 0:4.16.4-4.el8_7"
                  },
                  {
                    "Comment": "samba-common-tools is signed with Red Hat redhatrelease2 key"
                  }
                ]
              },
              {
                "Operator": "AND",
                "Criterias": [

                ],
                "Criterions": [
                  {
                    "Comment": "samba-devel is earlier than 0:4.16.4-4.el8_7"
                  },
                  {
                    "Comment": "samba-devel is signed with Red Hat redhatrelease2 key"
                  }
                ]
              },
              {
                "Operator": "AND",
                "Criterias": [

                ],
                "Criterions": [
                  {
                    "Comment": "samba-krb5-printing is earlier than 0:4.16.4-4.el8_7"
                  },
                  {
                    "Comment": "samba-krb5-printing is signed with Red Hat redhatrelease2 key"
                  }
                ]
              },
              {
                "Operator": "AND",
                "Criterias": [

                ],
                "Criterions": [
                  {
                    "Comment": "samba-libs is earlier than 0:4.16.4-4.el8_7"
                  },
                  {
                    "Comment": "samba-libs is signed with Red Hat redhatrelease2 key"
                  }
                ]
              },
              {
                "Operator": "AND",
                "Criterias": [

                ],
                "Criterions": [
                  {
                    "Comment": "samba-pidl is earlier than 0:4.16.4-4.el8_7"
                  },
                  {
                    "Comment": "samba-pidl is signed with Red Hat redhatrelease2 key"
                  }
                ]
              },
              {
                "Operator": "AND",
                "Criterias": [

                ],
                "Criterions": [
                  {
                    "Comment": "samba-test is earlier than 0:4.16.4-4.el8_7"
                  },
                  {
                    "Comment": "samba-test is signed with Red Hat redhatrelease2 key"
                  }
                ]
              },
              {
                "Operator": "AND",
                "Criterias": [

                ],
                "Criterions": [
                  {
                    "Comment": "samba-test-libs is earlier than 0:4.16.4-4.el8_7"
                  },
                  {
                    "Comment": "samba-test-libs is signed with Red Hat redhatrelease2 key"
                  }
                ]
              },
              {
                "Operator": "AND",
                "Criterias": [

                ],
                "Criterions": [
                  {
                    "Comment": "samba-vfs-iouring is earlier than 0:4.16.4-4.el8_7"
                  },
                  {
                    "Comment": "samba-vfs-iouring is signed with Red Hat redhatrelease2 key"
                  }
                ]
              },
              {
                "Operator": "AND",
                "Criterias": [

                ],
                "Criterions": [
                  {
                    "Comment": "samba-winbind is earlier than 0:4.16.4-4.el8_7"
                  },
                  {
                    "Comment": "samba-winbind is signed with Red Hat redhatrelease2 key"
                  }
                ]
              },
              {
                "Operator": "AND",
                "Criterias": [

                ],
                "Criterions": [
                  {
                    "Comment": "samba-winbind-clients is earlier than 0:4.16.4-4.el8_7"
                  },
                  {
                    "Comment": "samba-winbind-clients is signed with Red Hat redhatrelease2 key"
                  }
                ]
              },
              {
                "Operator": "AND",
                "Criterias": [

                ],
                "Criterions": [
                  {
                    "Comment": "samba-winbind-krb5-locator is earlier than 0:4.16.4-4.el8_7"
                  },
                  {
                    "Comment": "samba-winbind-krb5-locator is signed with Red Hat redhatrelease2 key"
                  }
                ]
              },
              {
                "Operator": "AND",
                "Criterias": [

                ],
                "Criterions": [
                  {
                    "Comment": "samba-winbind-modules is earlier than 0:4.16.4-4.el8_7"
                  },
                  {
                    "Comment": "samba-winbind-modules is signed with Red Hat redhatrelease2 key"
                  }
                ]
              },
              {
                "Operator": "AND",
                "Criterias": [

                ],
                "Criterions": [
                  {
                    "Comment": "samba-winexe is earlier than 0:4.16.4-4.el8_7"
                  },
                  {
                    "Comment": "samba-winexe is signed with Red Hat redhatrelease2 key"
                  }
                ]
              }
            ],
            "Criterions": [

            ]
          }
        ],
        "Criterions": [

        ]
      }
    ],
    "Criterions": [
      {
        "Comment": "Oracle Linux 8 is installed"
      }
    ]
  },
  "Severity": "Important",
  "Cves": [
    {
      "Impact": "",
      "Href": "",
      "ID": "CVE-2022-38023"
    }
  ],
  "Issued": {
    "Date": "2023-02-21"
  }
}