{
  "Title": "RHSA-2023:0626: libksba security update (Important)",
  "Description": "KSBA (pronounced Kasbah) is a library to make X.509 certificates as well as the CMS easily accessible by other applications. Both specifications are building blocks of S/MIME and TLS.\nSecurity Fix(es):\n* libksba: integer overflow to code executiona (CVE-2022-47629)\nFor more details about the security issue(s), including the impact, a CVSS score, acknowledgments, and other related information, refer to the CVE page(s) listed in the References section.",
  "Platform": [
    "Red Hat Enterprise Linux 9"
  ],
  "References": [
    {
      "Source": "RHSA",
      "URI": "https://access.redhat.com/errata/RHSA-2023:0626",
      "ID": "RHSA-2023:0626"
    },
    {
      "Source": "CVE",
      "URI": "https://access.redhat.com/security/cve/CVE-2022-47629",
      "ID": "CVE-2022-47629"
    }
  ],
  "Criteria": {
    "Operator": "OR",
    "Criterias": [
      {
        "Operator": "AND",
        "Criterias": [
          {
            "Operator": "OR",
            "Criterias": [
              {
                "Operator": "AND",
                "Criterias": [

                ],
                "Criterions": [
                  {
                    "Comment": "libksba is earlier than 0:1.5.1-6.el9_1"
                  },
                  {
                    "Comment": "libksba is signed with Red Hat redhatrelease2 key"
                  }
                ]
              },
              {
                "Operator": "AND",
                "Criterias": [

                ],
                "Criterions": [
                  {
                    "Comment": "libksba-devel is earlier than 0:1.5.1-6.el9_1"
                  },
                  {
                    "Comment": "libksba-devel is signed with Red Hat redhatrelease2 key"
                  }
                ]
              }
            ],
            "Criterions": [

            ]
          }
        ],
        "Criterions": [
          {
            "Comment": "Oracle Linux 9 is installed"
          }
        ]
      }
    ],
    "Criterions": [
      {
        "Comment": "Oracle Linux 9 is installed"
      }
    ]
  },
  "Severity": "Important",
  "Cves": [
    {
      "Impact": "",
      "Href": "",
      "ID": "CVE-2022-47629"
    }
  ],
  "Issued": {
    "Date": "2023-02-07"
  }
}