{
  "Title": "RHSA-2023:0842: tar security update (Moderate)",
  "Description": "The GNU tar program can save multiple files in an archive and restore files from an archive.\nSecurity Fix(es):\n* tar: heap buffer overflow at from_header() in list.c via specially crafted checksum (CVE-2022-48303)\nFor more details about the security issue(s), including the impact, a CVSS score, acknowledgments, and other related information, refer to the CVE page(s) listed in the References section.",
  "Platform": [
    "Red Hat Enterprise Linux 8"
  ],
  "References": [
    {
      "Source": "RHSA",
      "URI": "https://access.redhat.com/errata/RHSA-2023:0842",
      "ID": "RHSA-2023:0842"
    },
    {
      "Source": "CVE",
      "URI": "https://access.redhat.com/security/cve/CVE-2022-48303",
      "ID": "CVE-2022-48303"
    }
  ],
  "Criteria": {
    "Operator": "OR",
    "Criterias": [
      {
        "Operator": "AND",
        "Criterias": [
          {
            "Operator": "OR",
            "Criterias": [

            ],
            "Criterions": [
              {
                "Comment": "Oracle Linux 8 is installed"
              },
              {
                "Comment": "Red Hat CoreOS 4 is installed"
              }
            ]
          }
        ],
        "Criterions": [
          {
            "Comment": "tar is earlier than 2:1.30-6.el8_7.1"
          },
          {
            "Comment": "tar is signed with Red Hat redhatrelease2 key"
          }
        ]
      }
    ],
    "Criterions": [
      {
        "Comment": "Oracle Linux 8 is installed"
      }
    ]
  },
  "Severity": "Moderate",
  "Cves": [
    {
      "Impact": "",
      "Href": "",
      "ID": "CVE-2022-48303"
    }
  ],
  "Issued": {
    "Date": "2023-02-21"
  }
}